{
	"info": {
		"_postman_id": "16af98a7-7407-4735-a152-df8c2cba2ba6",
		"name": "Project",
		"schema": "https://schema.getpostman.com/json/collection/v2.1.0/collection.json"
	},
	"item": [
		{
			"name": "Destination",
			"item": [
				{
					"name": "FindAllDestination",
					"request": {
						"method": "GET",
						"header": [],
						"url": {
							"raw": "http://localhost:8080/destination/all",
							"protocol": "http",
							"host": [
								"localhost"
							],
							"port": "8080",
							"path": [
								"destination",
								"all"
							]
						}
					},
					"response": []
				},
				{
					"name": "FindDestinationByStateName",
					"request": {
						"method": "GET",
						"header": [],
						"url": {
							"raw": "http://localhost:8080/destination/details/Goa",
							"protocol": "http",
							"host": [
								"localhost"
							],
							"port": "8080",
							"path": [
								"destination",
								"details",
								"Goa"
							]
						}
					},
					"response": []
				},
				{
					"name": "FindDestinationByCountryName",
					"request": {
						"method": "GET",
						"header": [],
						"url": {
							"raw": "http://localhost:8080/destination/india",
							"protocol": "http",
							"host": [
								"localhost"
							],
							"port": "8080",
							"path": [
								"destination",
								"india"
							]
						}
					},
					"response": []
				},
				{
					"name": "AddNewDestination",
					"request": {
						"method": "POST",
						"header": [],
						"body": {
							"mode": "raw",
							"raw": "{\r\n    \"destinationId\":0,\r\n    \"stateName\":\"Goa\",\r\n    \"stateInfo\":\"Goa is a state on the southwestern coast of India within the Konkan region.\",\r\n    \"countryName\":\"india\",\r\n    \"countryInfo\":\"India, officially the Republic of India is a country in South Asia.\",\r\n    \"destImage\":\"https://encrypted-tbn0.gstatic.com/images?q=tbn:ANd9GcRsCUTU-H2SNTl30nBtNqbmugp7ibBNsDE2bg&usqp=CAU\"\r\n}",
							"options": {
								"raw": {
									"language": "json"
								}
							}
						},
						"url": {
							"raw": "http://localhost:8080/adddestination",
							"protocol": "http",
							"host": [
								"localhost"
							],
							"port": "8080",
							"path": [
								"adddestination"
							]
						}
					},
					"response": []
				}
			]
		},
		{
			"name": "Package",
			"item": [
				{
					"name": "FindPackageByName",
					"request": {
						"method": "GET",
						"header": [],
						"url": {
							"raw": "http://localhost:8080/package/details/pune",
							"protocol": "http",
							"host": [
								"localhost"
							],
							"port": "8080",
							"path": [
								"package",
								"details",
								"pune"
							]
						}
					},
					"response": []
				},
				{
					"name": "AddNewPackage",
					"request": {
						"method": "POST",
						"header": [],
						"body": {
							"mode": "raw",
							"raw": "{\r\n    \"packageId\": 0  , \r\n    \"packageName\": \"Nagpur\",\r\n     \"pricePerPerson\": 400,\r\n     \"category\":\"Group\",       \r\n    \"startDate\":\"2022-10-10\",      \r\n     \"days\":\"5\",          \r\n    \"destination\":\"1\",  \r\n     \"pkgImage\":\"https://encrypted-tbn0.gstatic.com/images?q=tbn:ANd9GcRsCUTU-H2SNTl30nBtNqbmugp7ibBNsDE2bg&usqp=CAU\"\r\n}",
							"options": {
								"raw": {
									"language": "json"
								}
							}
						},
						"url": {
							"raw": "http://localhost:8080/addpackage",
							"protocol": "http",
							"host": [
								"localhost"
							],
							"port": "8080",
							"path": [
								"addpackage"
							]
						}
					},
					"response": []
				},
				{
					"name": "AllPackageByDestId",
					"request": {
						"method": "GET",
						"header": [],
						"url": {
							"raw": "http://localhost:8080/allPackage/1",
							"protocol": "http",
							"host": [
								"localhost"
							],
							"port": "8080",
							"path": [
								"allPackage",
								"1"
							]
						}
					},
					"response": []
				},
				{
					"name": "DeletePackageById",
					"request": {
						"method": "DELETE",
						"header": [],
						"url": {
							"raw": "http://localhost:8080/package/7",
							"protocol": "http",
							"host": [
								"localhost"
							],
							"port": "8080",
							"path": [
								"package",
								"7"
							]
						}
					},
					"response": []
				}
			]
		},
		{
			"name": "Booking",
			"item": [
				{
					"name": "BookingHistory",
					"request": {
						"method": "GET",
						"header": [],
						"url": {
							"raw": "http://localhost:8080/",
							"protocol": "http",
							"host": [
								"localhost"
							],
							"port": "8080",
							"path": [
								""
							]
						}
					},
					"response": []
				},
				{
					"name": "AddBooking",
					"request": {
						"method": "POST",
						"header": [],
						"body": {
							"mode": "raw",
							"raw": "{\r\n   \r\n   \"bookingId\" :0,\r\n   \"personCount\":5,\r\n   \"totalPrice\":2000,\r\n   \"idProofLink\":\"pqr.com\",\r\n   \"bookingPdfLink\":\"bookingpdf.com\",\r\n   \"userId\":1,\r\n   \"packageId\":\"2\"\r\n}",
							"options": {
								"raw": {
									"language": "json"
								}
							}
						},
						"url": {
							"raw": "http://localhost:8080/addbooking",
							"protocol": "http",
							"host": [
								"localhost"
							],
							"port": "8080",
							"path": [
								"addbooking"
							]
						}
					},
					"response": []
				},
				{
					"name": "AddBookingWithPerson",
					"request": {
						"method": "POST",
						"header": [],
						"body": {
							"mode": "raw",
							"raw": "{\r\n    \"packageId\" : 1,\r\n    \"userId\": 2,\r\n    \"personCount\" : 2,\r\n    \"totalPrice\" : 1000,\r\n    \"idProofLink\" : \"abc.com\",\r\n    \"bookingDate\" : \"2022-04-01\",\r\n    \"bookingPdfLink\":\"bookingpdf.com\",\r\n\r\n     \"person\" : [\r\n        {\r\n            \"age\" : 25,\r\n            \"idProof\" : \"Adhar Card\",\r\n            \"name\" : \"saurabh kale\"\r\n            \r\n        },\r\n         {\r\n            \"age\" : 23,\r\n            \"idProof\" : \"Adhar Card\",\r\n            \"name\" : \"mahesh susaladi\"\r\n           \r\n        }\r\n    ]\r\n}",
							"options": {
								"raw": {
									"language": "json"
								}
							}
						},
						"url": {
							"raw": "http://localhost:8080/booking/add",
							"protocol": "http",
							"host": [
								"localhost"
							],
							"port": "8080",
							"path": [
								"booking",
								"add"
							]
						}
					},
					"response": []
				}
			]
		},
		{
			"name": "User",
			"item": [
				{
					"name": "SignInUser",
					"request": {
						"method": "POST",
						"header": [],
						"body": {
							"mode": "raw",
							"raw": "{\r\n    \"email\" :\"mahesh@test.com\",\r\n    \"password\":\"7890\"\r\n}",
							"options": {
								"raw": {
									"language": "json"
								}
							}
						},
						"url": {
							"raw": "http://localhost:8080/user/signin",
							"protocol": "http",
							"host": [
								"localhost"
							],
							"port": "8080",
							"path": [
								"user",
								"signin"
							]
						}
					},
					"response": []
				},
				{
					"name": "SignUpUser",
					"request": {
						"method": "POST",
						"header": [],
						"body": {
							"mode": "raw",
							"raw": "{\r\n    \"firstName\":\"Abhay\",\r\n    \"LastName\":\"Kulkarni\",\r\n    \"email\" :\"abhay@test.com\",\r\n    \"password\":\"1234\",\r\n    \"age\":24,\r\n    \"gender\":\"Male\",\r\n    \"mobileNo\":\"9874563213\",\r\n    \"secretQue\":\"My Favorite Place to visit\",\r\n    \"secretAns\":\"Kerala\",\r\n    \"role\":\"admin\"\r\n}",
							"options": {
								"raw": {
									"language": "json"
								}
							}
						},
						"url": {
							"raw": "http://localhost:8080/user/signup",
							"protocol": "http",
							"host": [
								"localhost"
							],
							"port": "8080",
							"path": [
								"user",
								"signup"
							]
						}
					},
					"response": []
				},
				{
					"name": "ForgotPassword",
					"request": {
						"method": "POST",
						"header": [],
						"body": {
							"mode": "raw",
							"raw": "{\r\n    \"userId\":\"1\",\r\n    \"email\":\"saurabh@test.com\",\r\n    \"secretQue\":\"which is your favorite movie\",\r\n    \"secretAns\":\"ZNMD\"\r\n}",
							"options": {
								"raw": {
									"language": "json"
								}
							}
						},
						"url": {
							"raw": "http://localhost:8080/user/forgotpassword",
							"protocol": "http",
							"host": [
								"localhost"
							],
							"port": "8080",
							"path": [
								"user",
								"forgotpassword"
							]
						}
					},
					"response": []
				},
				{
					"name": "ChangePassword",
					"request": {
						"method": "POST",
						"header": [],
						"body": {
							"mode": "raw",
							"raw": "{\r\n    \"userId\":12,\r\n    \"email\":\"mahesh@test.com\",\r\n    \"password\":\"7890\"\r\n}",
							"options": {
								"raw": {
									"language": "json"
								}
							}
						},
						"url": {
							"raw": "http://localhost:8080/user/changepassword",
							"protocol": "http",
							"host": [
								"localhost"
							],
							"port": "8080",
							"path": [
								"user",
								"changepassword"
							]
						}
					},
					"response": []
				},
				{
					"name": "UpdateUserProfile",
					"request": {
						"method": "POST",
						"header": [],
						"body": {
							"mode": "raw",
							"raw": "{\r\n    \"userId\":1,\r\n    \"age\" :  21,\r\n    \"mobileNo\" : \"9732587413\"   \r\n}",
							"options": {
								"raw": {
									"language": "json"
								}
							}
						},
						"url": {
							"raw": "http://localhost:8080/user/updateprofile",
							"protocol": "http",
							"host": [
								"localhost"
							],
							"port": "8080",
							"path": [
								"user",
								"updateprofile"
							]
						}
					},
					"response": []
				}
			]
		},
		{
			"name": "Facilities",
			"item": []
		},
		{
			"name": "DayWiseSchedule",
			"item": []
		}
	]
}